…
parcels
#> # A tibble: 498 × 18
#>        FID gml_id  OBJECTID     CID VOLUME FOLIO     PID POT_PID LPI   CAD_TYPE1
#>    <int64> <chr>      <int>   <int> <chr>  <int>   <int>   <int> <chr> <chr>    
#>  1    2688 LIST_C…     2688 1104474 59944      4 5677504       0 GRF64 Private …
#>  2    2877 LIST_C…     2877 1023836 128641     1 1816976       0 FMR21 Private …
#>  3    3425 LIST_C…     3425 1145853 126957     1 3273346       0 FJA84 Authorit…
#>  4    4682 LIST_C…     4682 1023837 128641     2 1816984       0 FMR21 Private …
#>  5    6102 LIST_C…     6102 1249716 252507     1 7570663       0 FAC83 Private …
#>  6    6287 LIST_C…     6287 1023828 127656     3 1789939       0 FBF18 Private …
#>  7    6395 LIST_C…     6395 1502061 173638     1 9165211       0 GAV70 Private …
#>  8    8685 LIST_C…     8685 1407763 231575     1       0       0 <NA>  Casement 
#>  9   10819 LIST_C…    10819 1334013 152956     1 2818818       0 GDH05 Private …
#> 10   11600 LIST_C…    11600 1091759 58505      2 5677731       0 HSF79 Private …
#> # ℹ 488 more rows
#> # ℹ 8 more variables: CAD_TYPE2 <chr>, TENURE_TY <chr>, FEAT_NAME <chr>,
#> #   STRATA_LEV <chr>, COMP_AREA <dbl>, MEAS_AREA <dbl>, UFI <chr>,
#> #   geometry <wk_wkb>
…
